{
  "manifestDescription": {
    "message": "Cross-post Mastodon toots to Twitter.",
    "description": "Extension description in the manifest file"
  },
  "postOnTheBirdSite": {
    "message": "Also post on the bird site",
    "description": "Tooltip displayed on the birdsite button"
  },
  "postAs": {
    "message": "Post as @$USERNAME$",
    "description": "The status label when crossposting is selected",
    "placeholders": {
      "username" : {
        "content" : "$1",
        "example" : "twitterhandle"
      }
    }
  },
  "authenticating": {
    "message": "Authenticating",
    "description": "Displayed during the authentication process"
  },
  "posting": {
    "message": "Sending",
    "description": "Displayed when the tweet is being sent"
  },
  "sent": {
    "message": "Sent ✓",
    "description": "Displayed when the tweet has been sent successfully"
  },
  "anErrorOccured": {
    "message": "An error occured",
    "description": "Displayed when an error occurs during authentication or posting"
  },
  "clickToLogout": {
    "message": "Click to logout from the bird site",
    "description": "Tooltip displayed on the username link"
  },
  "confirmLogout": {
    "message": "Do you want to disconnect from the @$USERNAME$ bird site account?",
    "description": "Confirmation message before logging out",
    "placeholders": {
      "username" : {
        "content" : "$1",
        "example" : "twitterhandle"
      }
    }
  }
}
